{
  "title": "NetSuite Connector Documentation",
  "generated_at": "2026-06-20T00:00:00Z",
  "sections": [
    {
      "id": "overview",
      "title": "Overview",
      "content": "The **NetSuite** connector integrates Shielva with the [Oracle NetSuite SuiteTalk REST API](https://docs.oracle.com/en/cloud/saas/netsuite/ns-online-help/section_1544431116.html) to sync customers, invoices, and items into the Shielva knowledge base and execute arbitrary SuiteQL queries.\n\nNetSuite is a leading cloud ERP/CRM used by mid-market and enterprise companies worldwide. This connector exposes **9 API methods** across 4 resource domains \u2014 Customers, Invoices, Items, and SuiteQL \u2014 and implements a full sync engine that ingests all data as normalized `ConnectorDocument` objects.\n\n**Key capabilities:**\n- Token-Based Authentication (OAuth 1.0a, HMAC-SHA256) \u2014 no browser redirect needed\n- Health check via `GET /record/v1/customer?limit=1`\n- Full sync: Customers + Invoices + Items\n- Paginated listing with `limit` and `offset` parameters\n- Direct `get_customer` and `get_invoice` by NetSuite internal ID\n- SuiteQL query engine for cross-record SQL-like queries\n- Typed exception hierarchy (auth / rate-limit / not-found / network / server)\n- Exponential backoff retry (auth errors never retried)\n- All records normalized to `ConnectorDocument` with stable 16-char SHA-256 source IDs"
    },
    {
      "id": "quick-start",
      "title": "Quick Start",
      "content": "Get the NetSuite connector running in under 15 minutes.\n\n### 1. Enable Required NetSuite Features\n\n1. Navigate to **Setup > Company > Enable Features > SuiteCloud**\n2. Enable **SuiteTalk REST Web Services**\n3. Enable **Token-Based Authentication**\n4. Save\n\n### 2. Create an Integration Record\n\n1. Go to **Setup > Integration > Integration Management > New**\n2. Name it `Shielva Platform`, enable **Token-Based Authentication** under Authentication\n3. Click Save \u2014 copy the **Consumer Key** and **Consumer Secret** (shown once only)\n\n### 3. Create an Access Token\n\n1. Go to **Setup > Users/Roles > Access Tokens > New**\n2. Select your Integration, user, and role\n3. Click Save \u2014 copy the **Token ID** and **Token Secret** (shown once only)\n\n### 4. Install the Connector\n\nIn the Shielva ACP:\n1. Navigate to **Integrations > NetSuite**\n2. Enter your **Account ID**, **Consumer Key**, **Consumer Secret**, **Token Key**, and **Token Secret**\n3. Click **Install** \u2014 Shielva verifies the credentials against your NetSuite instance\n\n### 5. Run Your First Sync\n\n```python\nasync with NetSuiteConnector(\n    tenant_id=\"tenant-001\",\n    connector_id=\"netsuite-001\",\n    config={\n        \"account_id\": \"1234567\",\n        \"consumer_key\": \"YOUR_CONSUMER_KEY\",\n        \"consumer_secret\": \"YOUR_CONSUMER_SECRET\",\n        \"token_key\": \"YOUR_TOKEN_KEY\",\n        \"token_secret\": \"YOUR_TOKEN_SECRET\",\n    }\n) as conn:\n    result = await conn.sync(full=True)\n    print(f\"Synced {result.documents_synced} records\")\n```"
    },
    {
      "id": "authentication",
      "title": "Authentication",
      "content": "The NetSuite connector uses **Token-Based Authentication (TBA)** \u2014 NetSuite's implementation of OAuth 1.0a with HMAC-SHA256 signatures.\n\n### Credential Fields\n\n| Field | Key | Type | Required | Description |\n|-------|-----|------|----------|-------------|\n| Account ID | `account_id` | string | Yes | NetSuite account ID (e.g. `1234567` or `1234567_SB1` for sandbox) |\n| Consumer Key | `consumer_key` | string | Yes | From your NetSuite Integration record |\n| Consumer Secret | `consumer_secret` | password | Yes | From your NetSuite Integration record \u2014 shown once at creation |\n| Token Key | `token_key` | string | Yes | Token ID from Setup > Users/Roles > Access Tokens |\n| Token Secret | `token_secret` | password | Yes | Token Secret \u2014 shown once at creation |\n\n### How TBA Signing Works\n\nEvery HTTP request to the NetSuite REST API is signed on-the-fly with a fresh OAuth 1.0a Authorization header:\n\n1. Collect OAuth params: `consumer_key`, `token`, `signature_method=HMAC-SHA256`, `timestamp`, `nonce`, `version=1.0`\n2. Build a percent-encoded parameter string (sorted lexicographically)\n3. Build the signature base string: `METHOD & URL & PARAMS` (all percent-encoded)\n4. Sign with `HMAC-SHA256(consumer_secret & token_secret, base_string)`\n5. Base64-encode the digest and append as `oauth_signature`\n6. Send as `Authorization: OAuth realm=\"...\", oauth_consumer_key=\"...\", ...`\n\nThis happens per-request with a fresh nonce and timestamp \u2014 no token caching or refresh is needed.\n\n### Security\n\n- All five credential values are stored AES-256-GCM encrypted in the Shielva vault\n- Credentials are never logged or written to disk\n- The Consumer Secret and Token Secret are write-only after first save \u2014 they cannot be retrieved from Shielva's UI\n- All communication uses TLS 1.2+"
    },
    {
      "id": "configuration",
      "title": "Configuration",
      "content": "Every `install_field` listed below is collected from the user **once** at install time and stored in the connector's encrypted config. `config_keys` are values the connector derives at runtime (e.g. tokens) and persists for subsequent calls.\n\n### Install fields\n\n| Key | Label | Type | Required | Description |\n|-----|-------|------|----------|-------------|\n| `account_id` | Account ID | `string` | \u2705 | Your NetSuite account ID. Find it under Setup > Company > Company Information > NetSuite Account ID. For sandbox accounts append _SB1 (e.g. 1234567_SB1). |\n| `consumer_key` | Consumer Key | `string` | \u2705 | The Consumer Key generated when you created your Integration record in NetSuite (Setup > Integration > Integration Management). |\n| `consumer_secret` | Consumer Secret | `password` | \u2705 | The Consumer Secret from your NetSuite Integration record. Shown only once at creation \u2014 store it securely. |\n| `token_key` | Token Key | `string` | \u2705 | The Token ID generated under Setup > Users/Roles > Access Tokens > New or via the User Provisioning page. |\n| `token_secret` | Token Secret | `password` | \u2705 | The Token Secret corresponding to your Token ID. Shown only once at creation. |\n\n### Runtime config keys\n\n_No runtime-derived config keys for this connector._\n\n### Defaults & validation\n\n- All values are validated on `initialize()` \u2014 missing required fields raise `MissingConfigError`, malformed values raise `InvalidConfigError`.\n- Numeric and boolean fields are coerced from strings (e.g. `\"true\"` \u2192 `True`) so configuration loaded from environment variables is accepted unchanged.\n- Secrets are never echoed back in responses or logs; only field keys appear in audit entries.",
      "children": []
    },
    {
      "id": "api-methods",
      "title": "API Methods",
      "content": "The connector exposes 9 public async methods.",
      "children": [
        {
          "id": "install",
          "title": "install()",
          "content": "Validates all five TBA credential fields are present and non-empty, then verifies them by calling `GET /record/v1/customer?limit=1`.\n\n```python\nresult = await connector.install()\n# InstallResult(health=HEALTHY, auth_status=CONNECTED, connector_id='1234567', message='Connected to NetSuite account 1234567...')\n```\n\n**Returns:** `InstallResult` with `health`, `auth_status`, `connector_id`, `message`\n\n**Error cases:**\n- Any missing field \u2192 `OFFLINE / MISSING_CREDENTIALS` (lists which fields are missing)\n- Auth failure (401/403) \u2192 `OFFLINE / INVALID_CREDENTIALS`\n- Network failure \u2192 `OFFLINE / FAILED`"
        },
        {
          "id": "health-check",
          "title": "health_check()",
          "content": "Verifies connectivity by calling `GET /record/v1/customer?limit=1`.\n\n```python\nresult = await connector.health_check()\n# HealthCheckResult(health=HEALTHY, auth_status=CONNECTED, message='NetSuite REST API reachable \u2014 account 1234567')\n```\n\n**Returns:** `HealthCheckResult` with `health`, `auth_status`, `message`\n\n**Health states:**\n- `HEALTHY / CONNECTED` \u2014 API responded successfully\n- `OFFLINE / MISSING_CREDENTIALS` \u2014 one or more fields are empty\n- `OFFLINE / INVALID_CREDENTIALS` \u2014 401 or 403 from NetSuite\n- `DEGRADED / FAILED` \u2014 network timeout or 5xx error"
        },
        {
          "id": "sync",
          "title": "sync(full, since, kb_id)",
          "content": "Syncs NetSuite customers, invoices, and items into the Shielva knowledge base.\n\n```python\n# Full sync \u2014 up to 100 records per entity type\nresult = await connector.sync(full=True, kb_id=\"kb_netsuite\")\n\nprint(result.documents_found)   # total records fetched\nprint(result.documents_synced)  # successfully normalized + ingested\nprint(result.documents_failed)  # failed normalizations\nprint(result.status)            # COMPLETED / PARTIAL / FAILED\n```\n\n**Sync order and failure modes:**\n1. Fetch customers \u2192 failure returns `FAILED` (stops here)\n2. Fetch invoices \u2192 failure returns `PARTIAL` (customers already synced)\n3. Fetch items \u2192 failure returns `PARTIAL` (customers + invoices already synced)\n\n**Status definitions:**\n- `COMPLETED` \u2014 all entities fetched and normalized successfully\n- `PARTIAL` \u2014 some entity fetch or normalization failed\n- `FAILED` \u2014 customer fetch failed (no data synced)"
        },
        {
          "id": "list-customers",
          "title": "list_customers(limit, offset)",
          "content": "Returns a paginated list of NetSuite customer records.\n\n```python\n# First page\npage = await connector.list_customers(limit=100, offset=0)\n# {\"count\": 100, \"hasMore\": true, \"items\": [{\"id\": \"42\", \"companyName\": \"Acme Corp\", ...}]}\n\n# Second page\npage2 = await connector.list_customers(limit=100, offset=100)\n```\n\n**NetSuite endpoint:** `GET /record/v1/customer`\n\n**Response shape:**\n```json\n{\n  \"count\": 100,\n  \"hasMore\": true,\n  \"offset\": 0,\n  \"totalResults\": 450,\n  \"items\": [{...}]\n}\n```"
        },
        {
          "id": "get-customer",
          "title": "get_customer(customer_id)",
          "content": "Returns a single NetSuite customer record by internal ID.\n\n```python\ncustomer = await connector.get_customer(\"42\")\n# {\"id\": \"42\", \"companyName\": \"Acme Corporation\", \"email\": \"billing@acme.com\", ...}\n```\n\n**NetSuite endpoint:** `GET /record/v1/customer/{customer_id}`\n\n**Raises:** `NetSuiteNotFoundError` if the customer does not exist"
        },
        {
          "id": "list-invoices",
          "title": "list_invoices(limit, offset)",
          "content": "Returns a paginated list of NetSuite invoice (transaction) records.\n\n```python\npage = await connector.list_invoices(limit=100, offset=0)\n# {\"count\": 50, \"hasMore\": false, \"items\": [{\"id\": \"100\", \"tranId\": \"INV-1001\", ...}]}\n```\n\n**NetSuite endpoint:** `GET /record/v1/invoice`"
        },
        {
          "id": "get-invoice",
          "title": "get_invoice(invoice_id)",
          "content": "Returns a single NetSuite invoice by internal ID.\n\n```python\ninvoice = await connector.get_invoice(\"100\")\n# {\"id\": \"100\", \"tranId\": \"INV-1001\", \"total\": 5000.00, ...}\n```\n\n**NetSuite endpoint:** `GET /record/v1/invoice/{invoice_id}`\n\n**Raises:** `NetSuiteNotFoundError` if the invoice does not exist"
        },
        {
          "id": "list-items",
          "title": "list_items(limit, offset)",
          "content": "Returns a paginated list of NetSuite item records (all item types: inventory, service, non-inventory, etc.).\n\n```python\npage = await connector.list_items(limit=100, offset=0)\n# {\"count\": 200, \"hasMore\": true, \"items\": [{\"id\": \"200\", \"displayName\": \"Professional Services\", ...}]}\n```\n\n**NetSuite endpoint:** `GET /record/v1/item`"
        },
        {
          "id": "suiteql",
          "title": "suiteql(query, limit, offset)",
          "content": "Execute an arbitrary SuiteQL query against the NetSuite query engine.\n\nSuiteQL is NetSuite's SQL-like language that supports JOINs, aggregations, and custom field access across all record types.\n\n```python\n# Get active customers with their balance\nresult = await connector.suiteql(\n    query=\"SELECT id, companyName, email, balance FROM customer WHERE isInactive = 'F' ORDER BY companyName\",\n    limit=1000,\n    offset=0\n)\nfor row in result[\"items\"]:\n    print(row[\"companyname\"], row[\"balance\"])\n\n# Get open invoices from the last 30 days\nresult = await connector.suiteql(\n    query=\"SELECT t.id, t.tranid, t.entity, t.amount, t.duedate FROM transaction t WHERE t.type = 'CustInvc' AND t.status = 'A' AND t.trandate >= BUILTIN.RELATIVE_RANGES('LM', 'START')\"\n)\n```\n\n**NetSuite endpoint:** `POST /query/v1/suiteql`\n\n**Required permission:** SuiteAnalytics Workbook (View) on the role\n\n**Response shape:**\n```json\n{\n  \"count\": 2,\n  \"hasMore\": false,\n  \"items\": [\n    {\"id\": \"42\", \"companyname\": \"Acme Corp\", \"balance\": \"2500.00\"},\n    {\"id\": \"43\", \"companyname\": \"Globex Inc\", \"balance\": \"0.00\"}\n  ]\n}\n```\n\n**Note:** SuiteQL column names in the response are always lowercase regardless of how they appear in the query."
        }
      ]
    },
    {
      "id": "data-model",
      "title": "Data Model",
      "content": "All records are normalized into `ConnectorDocument` objects before being ingested into the Shielva knowledge base.\n\n### ConnectorDocument\n\n```python\n@dataclass\nclass ConnectorDocument:\n    source_id: str        # SHA-256(entity_type:internal_id)[:16]\n    title: str            # Human-readable label\n    content: str          # Newline-separated key-value text\n    connector_id: str     # Shielva connector instance ID\n    tenant_id: str        # Shielva tenant ID\n    source_url: str       # NetSuite deep-link URL (if available)\n    metadata: dict        # Entity-specific structured fields\n```\n\n### Customer Document\n\n```json\n{\n  \"source_id\": \"a3f2b1c4d5e6f7a8\",\n  \"title\": \"Customer: Acme Corporation\",\n  \"content\": \"Customer: Acme Corporation\\nEntity ID: CUST-42\\nEmail: billing@acme.com\\nPhone: 555-1234\\nBalance: 2500.0\\nActive: True\\nSubsidiary: Parent Company\",\n  \"metadata\": {\n    \"entity_type\": \"customer\",\n    \"internal_id\": \"42\",\n    \"entity_id\": \"CUST-42\",\n    \"company_name\": \"Acme Corporation\",\n    \"email\": \"billing@acme.com\",\n    \"phone\": \"555-1234\",\n    \"balance\": 2500.0,\n    \"is_inactive\": false,\n    \"subsidiary\": \"Parent Company\"\n  }\n}\n```\n\n### Invoice Document\n\n```json\n{\n  \"source_id\": \"b8c9d0e1f2a3b4c5\",\n  \"title\": \"Invoice #INV-1001\",\n  \"metadata\": {\n    \"entity_type\": \"invoice\",\n    \"internal_id\": \"100\",\n    \"tran_id\": \"INV-1001\",\n    \"customer_name\": \"Acme Corporation\",\n    \"total\": 5000.0,\n    \"amount_remaining\": 5000.0,\n    \"tran_date\": \"2026-01-15\",\n    \"due_date\": \"2026-02-15\",\n    \"status\": \"Open\",\n    \"subsidiary\": \"Parent Company\"\n  }\n}\n```\n\n### Item Document\n\n```json\n{\n  \"source_id\": \"c1d2e3f4a5b6c7d8\",\n  \"title\": \"Item: Professional Services\",\n  \"metadata\": {\n    \"entity_type\": \"item\",\n    \"internal_id\": \"200\",\n    \"item_id\": \"ITEM-200\",\n    \"display_name\": \"Professional Services\",\n    \"description\": \"Consulting services billed per hour\",\n    \"sales_price\": 150.0,\n    \"item_type\": \"Service\",\n    \"is_inactive\": false\n  }\n}\n```\n\n### Stable ID Generation\n\nSource IDs are computed as:\n```python\nimport hashlib\nstable_id = hashlib.sha256(f\"{entity_type}:{internal_id}\".encode()).hexdigest()[:16]\n```\n\nThis ensures documents are de-duplicated correctly across incremental syncs."
    },
    {
      "id": "sync-behavior",
      "title": "Sync Behavior",
      "content": "`sync()` is the bulk ingestion entry point. A single call pulls every resource this connector knows how to sync from NetSuite, normalizes each one into a `ConnectorDocument`, and returns a `SyncResult` summarizing what was processed.\n\n### Sync lifecycle\n\n1. **Listing** \u2014 the connector requests the first page of each resource type from the provider's list endpoint.\n2. **Pagination** \u2014 subsequent pages are fetched until the provider signals end-of-stream (cursor exhaustion, `has_more=false`, or empty page).\n3. **Normalization** \u2014 each raw record is passed through the resource-specific `normalize_*` helper, which extracts fields, computes the `source_id`, and emits a `ConnectorDocument`.\n4. **Deduplication** \u2014 when the same resource appears across pages (rare, but possible during eventual-consistency windows), the deterministic `source_id` ensures the downstream knowledge base treats it as a single record, not a duplicate.\n5. **Partial-failure tolerance** \u2014 a per-resource failure is logged and the sync continues with the next resource. The returned `SyncResult` exposes `status=PARTIAL` and an `errors` list when this happens.\n\n### Pagination strategy\n\n- **Cursor-based** providers (most modern APIs) \u2014 the connector tracks the `next_cursor` field on each page and stops when the provider omits it.\n- **Offset/limit** providers \u2014 the connector requests fixed-size pages and stops when a page returns fewer records than `limit`.\n- **Token-based (e.g. `next_page_token`)** \u2014 same as cursor-based but the token is opaque and forwarded verbatim.\n\n### Rate-limit handling\n\nWhen the provider returns `429 Too Many Requests`, the connector honors the `Retry-After` header if present, otherwise applies exponential backoff (1s, 2s, 4s, 8s, 16s capped at 30s) with full jitter. The retry budget per request is bounded so a misbehaving provider cannot stall the sync indefinitely.\n\n### Incremental sync\n\nThe connector treats every `sync()` as a full re-walk of the listing endpoints. Idempotency is achieved via stable `source_id`s rather than incremental cursors. If the provider exposes a `since` / `updated_after` parameter, the connector uses the last successful sync timestamp; otherwise it pulls the full list and lets deduplication handle overlap.\n\n### Features enabled\n\nThis connector is configured with: error_handling, hmac_sha256, normalizer, oauth1_tba, rate_limiting, retry, suiteql.",
      "children": []
    },
    {
      "id": "error-handling",
      "title": "Error Handling",
      "content": "Every failure mode this connector encounters maps to a typed exception. Catching the base class \u2014 `NetSuiteError` \u2014 handles every connector-raised error in one block; catching a specific subclass lets you react to a particular failure mode.\n\n### Exception hierarchy\n\n```\nNetSuiteError(Exception)\n  NetSuiteAuthError(NetSuiteError)\n  NetSuiteRateLimitError(NetSuiteError)\n  NetSuiteNotFoundError(NetSuiteError)\n  NetSuiteNetworkError(NetSuiteError)\n  NetSuiteServerError(NetSuiteError)\n  NetSuiteValidationError(NetSuiteError)\n```\n\n### When each is raised\n\n- **`NetSuiteError`** \u2014 Base exception for all NetSuite connector errors.\n- **`NetSuiteAuthError`** \u2014 Raised when NetSuite rejects credentials or the OAuth 1.0a signature (401/403).\n- **`NetSuiteRateLimitError`** \u2014 Raised on 429 Too Many Requests from the NetSuite REST API.\n- **`NetSuiteNotFoundError`** \u2014 Raised when a requested NetSuite resource does not exist (404).\n- **`NetSuiteNetworkError`** \u2014 Raised on transient network failures (timeouts, connection errors).\n- **`NetSuiteServerError`** \u2014 Raised on 5xx responses from the NetSuite REST API.\n- **`NetSuiteValidationError`** \u2014 Raised when install_fields are missing or malformed before a request is sent.\n\n### Retry policy\n\n- **Transient HTTP errors** (network resets, `502`, `503`, `504`) \u2014 retried up to 3 times with exponential backoff + jitter.\n- **Rate-limit responses** (`429`) \u2014 retry honoring `Retry-After`, capped at 5 attempts.\n- **Authentication errors** (`401`, `403`) \u2014 not retried; surface immediately so the caller can re-authorize.\n- **4xx client errors** (`400`, `404`, `422`) \u2014 not retried; raised as a typed exception so the caller can fix the request.\n\n### Circuit breaker\n\nA per-connector circuit breaker opens after 5 consecutive failures within a 30-second window and stays open for 30 seconds. While open, every method call raises `CircuitBreakerOpen` immediately instead of incurring the network round-trip \u2014 protecting the provider from a thundering-herd retry storm when it is genuinely down.",
      "children": []
    },
    {
      "id": "testing",
      "title": "Testing",
      "content": "Every connector ships with a unit test suite under `tests/`. Unit tests mock the HTTP layer so they run offline; integration tests (if configured) hit the live provider API and require valid credentials in the environment.\n\n### Running unit tests\n\n```bash\ncd netsuite_connector\npython -m pytest -q tests/\n```\n\n### Test layout\n\n- `tests/test_connector.py` \u2014 the primary suite. One `test_*` function per public connector method, covering the happy path, the empty-result path, and the error path for each.\n- `tests/__init__.py` \u2014 package marker; no shared fixtures live here.\n- HTTP responses are mocked with `httpx.MockTransport` or `pytest-httpx` so the tests are deterministic and fast.\n\n### Test coverage at a glance\n\nThis connector ships **74** test functions. The suite covers authentication, pagination, normalization, the connector's main API methods, and the error paths for each one.\n\n### Integration tests\n\nIntegration tests are gated by the presence of credentials in the environment (e.g. `RUN_INTEGRATION=1` plus the connector's install-field values prefixed with `NETSUITE_`). When the gate is absent, the suite short-circuits with a `pytest.skip` so CI doesn't fail in environments without live access.",
      "children": []
    },
    {
      "id": "troubleshooting",
      "title": "Troubleshooting",
      "content": "| Symptom | Likely cause | Fix |\n|---|---|---|\n| `401 Unauthorized` | Invalid Consumer Key, Consumer Secret, Token Key, or Token Secret | Re-copy all four credential values from NetSuite \u2014 ensure you are using the correct environment (prod vs sandbox) |\n| `403 Forbidden` | Role lacks required permissions | Add View access for Customers, Transactions, Items, and REST Web Services to the role |\n| `Invalid consumer key` in `o:errorDetails` | Consumer Key does not match any Integration record | Verify the Integration record is enabled and the Consumer Key is copied correctly |\n| `Invalid signature` | Consumer Secret or Token Secret is wrong | Re-copy the secrets; if lost, revoke and regenerate credentials |\n| Connector shows MISSING_CREDENTIALS | One or more fields is empty | The error message lists which fields are missing \u2014 fill them all in |\n| Account hostname not resolving | Wrong Account ID or missing sandbox suffix | Check Setup > Company > Company Information; append `_SB1` for sandbox |\n| `SuiteTalk REST Web Services not enabled` | Feature disabled | Setup > Company > Enable Features > SuiteCloud \u2014 enable SuiteTalk REST Web Services |\n| TBA disabled | Feature disabled | Setup > Company > Enable Features > SuiteCloud \u2014 enable Token-Based Authentication |\n| SuiteQL returns 403 | Missing SuiteAnalytics Workbook permission | Add SuiteAnalytics Workbook (View) to the role, or switch to direct record REST endpoints |\n| Rate limit errors | NetSuite API concurrency limits | Connector retries automatically; reduce sync frequency for persistent throttling |"
    },
    {
      "id": "faq",
      "title": "FAQ",
      "content": "### Does this connector support multiple accounts of the same provider?\n\nYes. Each NetSuite account is a separate connector *instance* with its own `connector_id`, install fields, and encrypted credentials. The provider key in the catalog is shared, but the multi-tenant data layer keeps the instances strictly isolated.\n\n### Can I sync only some resource types?\n\nYes. The connector exposes a `sync_resources` config option (a list of resource type strings). When set, `sync()` walks only the listed types and skips the rest. Leave it unset to sync everything the connector knows about.\n\n### How does deletion propagate?\n\nOn each `sync()`, the connector compares the set of `source_id`s returned by NetSuite against the set it last persisted to the knowledge base. IDs that are absent on the new walk are deleted from the knowledge base, so deletions in NetSuite propagate to Shielva on the next sync.\n\n### What happens during a rate-limit hit?\n\nThe connector inspects `Retry-After` and waits the indicated interval. If the header is absent, it falls back to exponential backoff (1s, 2s, 4s, 8s, 16s) with full jitter, retrying up to 5 times. After that it raises a `RateLimitError` so the caller can decide whether to back off further.\n\n### Are credentials encrypted at rest?\n\nYes \u2014 AES-256-GCM with a per-tenant data encryption key derived via HKDF-SHA256 from the master key. Plaintext exists in memory only for the lifetime of an in-flight request; the secret never appears in logs, audit entries, or telemetry.\n\n### How do I add a new method?\n\n1. Add the method to the `NetSuiteConnector` class in `connector.py`.\n2. Add a corresponding `test_<method>` to `tests/test_connector.py` covering happy/empty/error paths.\n3. Re-run the documentation generator \u2014 the new method will appear in **API Methods** automatically.\n\n### Can the connector run in a worker / serverless context?\n\nYes. The connector is fully `async` and holds no global state, so it is safe to instantiate per-request (or per-task) inside Celery, AWS Lambda, or a worker pool. For long-running processes, instantiate once and reuse \u2014 the underlying HTTP client maintains a keep-alive connection pool.",
      "children": []
    },
    {
      "id": "changelog",
      "title": "Changelog",
      "content": "All notable changes to the **NetSuite connector** are recorded here. This project follows [Semantic Versioning](https://semver.org/): `MAJOR.MINOR.PATCH` where `MAJOR` is incremented for breaking interface changes, `MINOR` for backwards-compatible features, and `PATCH` for bug fixes.\n\n## [1.0.0] \u2014 Current\n\n### Added\n- Initial release of the NetSuite connector.\n- Full sync of all primary resource types with normalization into `ConnectorDocument`.\n- Public connector methods for direct API access (see **API Methods**).\n- Typed exception hierarchy with retry-aware classification (see **Error Handling**).\n- Health check endpoint for fast credential validation.\n\n### Stability\n- Multi-tenant safe \u2014 every query is scoped by `tenant_id`.\n- Idempotent ingestion \u2014 deterministic `source_id` ensures resyncs don't duplicate.\n- Circuit breaker protects upstream during sustained outage.\n\n### Upgrade notes\n- This is the initial release; no upgrade path is required.\n- Future PATCH releases are guaranteed not to break existing config or method signatures.\n- MINOR releases may introduce new optional methods or features; existing call sites continue to work unchanged.\n- MAJOR releases will be accompanied by a migration guide in this section.",
      "children": []
    }
  ]
}