{
  "title": "BigCommerce Documentation",
  "generated_at": "2026-06-20T00:00:00Z",
  "sections": [
    {
      "id": "overview",
      "title": "Overview",
      "content": "The **BigCommerce** connector integrates Shielva with the [BigCommerce REST API](https://developer.bigcommerce.com/docs/rest-management) to sync products, orders, and customers from your BigCommerce store into the Shielva knowledge base.\n\nBigCommerce is an enterprise-grade e-commerce platform used by thousands of retailers globally. This connector targets both **v2** (orders) and **v3** (products, customers) API versions and provides:\n- Full sync for all three core resource types\n- Page-number pagination with automatic page traversal\n- API key authentication via `X-Auth-Token` header\n- Typed exception hierarchy with exponential-backoff retry logic\n- Stable SHA-256 document IDs (prefixed by resource type) for idempotent ingestion\n\n**Key capabilities:**\n- `sync()` — paginated sweep of products + orders + customers in one operation\n- `list_products()` / `get_product()` — fetch from v3 catalog API\n- `list_orders()` / `get_order()` — fetch from v2 orders API\n- `list_customers()` / `get_customer()` — fetch from v3 customers API\n- `install()` / `health_check()` — credential validation via `GET /v2/store`"
    },
    {
      "id": "quick-start",
      "title": "Quick Start",
      "content": "Get the BigCommerce connector running in under 5 minutes.\n\n### 1. Find Your Store Hash\n\nLog in to your BigCommerce Control Panel. Your store hash appears in the URL:\n`https://store.mybigcommerce.com/stores/{store_hash}/dashboard`\n\nOr from your storefront URL: `https://store-{store_hash}.mybigcommerce.com`\n\n### 2. Create an API Account\n\n1. Control Panel → **Advanced Settings** → **API Accounts**\n2. **Create API Account** → **Create V2/V3 API Token**\n3. Set Products, Orders, Customers to **Read-only**\n4. Save and copy the **Access Token** (shown only once)\n\n### 3. Install the Connector\n\nIn the Shielva ACP → Integrations → BigCommerce:\n- **Store Hash**: `abc123def` (no URL prefix)\n- **API Access Token**: the token you copied above\n\n### 4. Run Your First Sync\n\n```python\nresult = await connector.sync(full=True)\nprint(f\"Synced {result.documents_synced} documents from {result.documents_found} records\")\n```"
    },
    {
      "id": "authentication",
      "title": "Authentication",
      "content": "The BigCommerce connector uses **API Key** authentication via a static access token generated from a V2/V3 API Account.\n\n### Install Fields\n\n| Field | Key | Type | Required | Description |\n|-------|-----|------|----------|-------------|\n| Store Hash | `store_hash` | string | Yes | Hash segment of the store URL, e.g. `abc123def` |\n| API Access Token | `access_token` | password | Yes | Token from Control Panel → Advanced Settings → API Accounts |\n\n### How it works\n\nEvery request includes the token in the `X-Auth-Token` header:\n\n```\nX-Auth-Token: your_access_token\nAccept: application/json\nContent-Type: application/json\n```\n\nRequests target:\n```\nhttps://api.bigcommerce.com/stores/{store_hash}/v2/...\nhttps://api.bigcommerce.com/stores/{store_hash}/v3/...\n```\n\n### Obtaining the Token\n\n1. Control Panel → Advanced Settings → API Accounts\n2. Create API Account → Create V2/V3 API Token\n3. Assign read-only scopes for Products, Orders, Customers\n4. Save → copy the access token immediately (shown only once)\n\n### Security\n\n- Tokens are stored AES-256-GCM encrypted in the Shielva vault\n- Never logged or exposed in API responses\n- Scoped to only the permissions you grant during account creation"
    },
    {
      "id": "configuration",
      "title": "Configuration",
      "content": "### Install Fields\n\n```json\n{\n  \"store_hash\": \"abc123def\",\n  \"access_token\": \"your_bigcommerce_access_token\"\n}\n```\n\n### Internal Defaults\n\n| Parameter | Default | Description |\n|-----------|---------|-------------|\n| `PAGE_SIZE` | `250` | Records per page (BigCommerce maximum) |\n| `TIMEOUT` | `30s` | HTTP request timeout |\n| `MAX_RETRIES` | `3` | Retry attempts on transient failures |\n| `RETRY_BACKOFF` | Exponential | 1s → 2s → 4s with jitter |\n\n### API Base URL\n\n`https://api.bigcommerce.com/stores/{store_hash}`\n\nv3 endpoints: `/v3/catalog/products`, `/v3/customers`\nv2 endpoints: `/v2/store`, `/v2/orders`, `/v2/orders/{id}`"
    },
    {
      "id": "api-methods",
      "title": "API Methods",
      "content": "The connector exposes 7 public API methods across 3 resource domains plus the sync engine.",
      "children": [
        {
          "id": "products",
          "title": "Products",
          "content": "Fetch product records from the BigCommerce v3 catalog API.\n\n### `list_products(limit=250, page=1)`\nReturns products for a single page.\n\n```python\n# First page of products\nproducts = await connector.list_products()\n\n# Second page\nproducts = await connector.list_products(page=2)\n```\n\n**BigCommerce endpoint:** `GET /v3/catalog/products`\n\nResponse includes `meta.pagination.total_pages` for multi-page traversal.\n\n---\n\n### `get_product(product_id)`\nFetch a single product by ID.\n\n```python\nproduct = await connector.get_product(77)\n```\n\n**BigCommerce endpoint:** `GET /v3/catalog/products/{id}`\n\nReturns the `data` object directly (unwrapped from the v3 envelope)."
        },
        {
          "id": "orders",
          "title": "Orders",
          "content": "Fetch order records from the BigCommerce v2 orders API.\n\n### `list_orders(limit=250, page=1)`\nReturns orders for a single page.\n\n```python\n# All orders, first page\norders = await connector.list_orders()\n\n# Page 2\norders = await connector.list_orders(page=2)\n```\n\n**BigCommerce endpoint:** `GET /v2/orders`\n\nv2 returns a JSON array directly (not wrapped in a `data` key). Pagination is detected when fewer than `limit` records are returned.\n\n---\n\n### `get_order(order_id)`\nFetch a single order by ID.\n\n```python\norder = await connector.get_order(100)\n```\n\n**BigCommerce endpoint:** `GET /v2/orders/{id}`"
        },
        {
          "id": "customers",
          "title": "Customers",
          "content": "Fetch customer records from the BigCommerce v3 customers API.\n\n### `list_customers(limit=250, page=1)`\nReturns customers for a single page.\n\n```python\n# All customers, first page\ncustomers = await connector.list_customers()\n\n# Page 2\ncustomers = await connector.list_customers(page=2)\n```\n\n**BigCommerce endpoint:** `GET /v3/customers`\n\n---\n\n### `get_customer(customer_id)`\nFetch a single customer by ID using the filter endpoint.\n\n```python\ncustomer = await connector.get_customer(10)\n```\n\n**BigCommerce endpoint:** `GET /v3/customers?id:in={customer_id}`\n\nReturns the first matching customer from the `data` array. Raises `BigCommerceNotFoundError` if no match."
        }
      ]
    },
    {
      "id": "sync",
      "title": "Sync & Ingestion",
      "content": "The `sync()` method performs a full sweep of products, orders, and customers in sequence.\n\n### How sync works\n\n1. Fetches all products via v3 page-number pagination (`meta.pagination.total_pages`)\n2. Fetches all orders via v2 length-based pagination (stops when `len(page) < limit`)\n3. Fetches all customers via v3 page-number pagination\n4. Each record is normalized to a `ConnectorDocument` with a stable SHA-256 source ID\n5. Documents are pushed to the knowledge base if `kb_id` is provided\n\n### Document IDs\n\nSource IDs are deterministic and include a resource-type prefix:\n- Products: `SHA-256('product:{id}')[:16]`\n- Orders: `SHA-256('order:{id}')[:16]`\n- Customers: `SHA-256('customer:{id}')[:16]`\n\nThe prefix ensures that a product and an order with the same numeric ID produce different source IDs — safe for upsert operations.\n\n### Sync result\n\n```python\nresult = await connector.sync(full=True, kb_id='kb_abc123')\nprint(result.status)            # 'completed' or 'partial'\nprint(result.documents_found)   # total records fetched\nprint(result.documents_synced)  # successfully normalized + ingested\nprint(result.documents_failed)  # normalization errors\n```\n\n### Partial failure behavior\n\n- If products sync fails → `SyncStatus.FAILED` (orders/customers not attempted)\n- If orders sync fails → `SyncStatus.PARTIAL` (products already synced, customers not attempted)\n- If customers sync fails → `SyncStatus.PARTIAL` (products + orders already synced)\n- Individual normalization errors increment `documents_failed` but don't stop the sync"
    },
    {
      "id": "pagination",
      "title": "Pagination",
      "content": "BigCommerce uses **page-number pagination** — different from Shopify's cursor-based system.\n\n### v3 API (products, customers)\n\nThe response includes `meta.pagination`:\n\n```json\n{\n  \"data\": [...],\n  \"meta\": {\n    \"pagination\": {\n      \"total\": 1250,\n      \"count\": 250,\n      \"per_page\": 250,\n      \"current_page\": 1,\n      \"total_pages\": 5\n    }\n  }\n}\n```\n\nThe connector reads `total_pages` and increments the `page` parameter until `page >= total_pages` or an empty `data` array is returned.\n\n### v2 API (orders)\n\nv2 returns a raw JSON array with no pagination metadata:\n\n```json\n[{...}, {...}, ...]\n```\n\nThe connector uses length-based detection: if `len(response) == limit`, there may be more pages; if `len(response) < limit`, we've reached the last page.\n\n### Page size\n\nBoth v2 and v3 accept a `limit` parameter up to 250. The connector uses 250 by default (BigCommerce maximum) to minimize round-trips."
    },
    {
      "id": "error-handling",
      "title": "Error Handling",
      "content": "The connector raises typed exceptions from `exceptions.py` for all error conditions.\n\n### Exception Hierarchy\n\n```\nBigCommerceError (base)\n├── BigCommerceAuthError       — 401/403: invalid token or insufficient scope\n├── BigCommerceNetworkError    — 5xx / connection errors / timeouts\n├── BigCommerceRateLimitError  — 429: rate limit exceeded\n└── BigCommerceNotFoundError   — 404: resource not found\n```\n\n### Retry Behavior\n\n| Error type | Retried? | Strategy |\n|-----------|----------|----------|\n| `BigCommerceRateLimitError` (429) | Yes | Honour `X-Rate-Limit-Time-Reset-Ms` header (ms → seconds) |\n| `BigCommerceNetworkError` (5xx) | Yes | Exponential backoff, up to 3 attempts |\n| `BigCommerceAuthError` (401/403) | No | Immediate failure — fix credentials |\n| `BigCommerceNotFoundError` (404) | No | Immediate failure — check resource ID |\n\n### Rate Limits\n\nBigCommerce rate limits vary by plan. The API returns `X-Rate-Limit-Time-Reset-Ms` (milliseconds until the window resets) and `X-Rate-Limit-Requests-Quota`. The connector reads `X-Rate-Limit-Time-Reset-Ms` and converts to seconds for its backoff calculation."
    },
    {
      "id": "data-models",
      "title": "Data Models",
      "content": "### `ConnectorDocument`\n\nAll normalized records become `ConnectorDocument` instances:\n\n```python\n@dataclass\nclass ConnectorDocument:\n    source_id: str       # SHA-256('{prefix}:{id}')[:16] — stable, 16 hex chars\n    title: str           # Human-readable title\n    content: str         # Full text content for the knowledge base\n    connector_id: str    # Shielva connector instance ID\n    tenant_id: str       # Tenant scoping — always set from auth context\n    source_url: str      # Link back to BigCommerce Control Panel for the record\n    metadata: dict       # Resource-specific structured fields\n```\n\n### Product metadata fields\n\n```json\n{\n  \"product_id\": 77,\n  \"sku\": \"IPOD-NANO-8GB\",\n  \"brand_name\": \"Apple\",\n  \"price\": 199.0,\n  \"sale_price\": 179.0,\n  \"availability\": \"available\",\n  \"condition\": \"New\",\n  \"type\": \"physical\",\n  \"inventory_level\": 42,\n  \"categories\": [18, 23]\n}\n```\n\n### Order metadata fields\n\n```json\n{\n  \"order_id\": 100,\n  \"status\": \"Awaiting Payment\",\n  \"total_inc_tax\": \"99.50\",\n  \"currency_code\": \"USD\",\n  \"date_created\": \"Wed, 08 May 2024 14:52:26 +0000\",\n  \"payment_method\": \"Credit Card\",\n  \"items_total\": 2,\n  \"items_shipped\": 0,\n  \"customer_email\": \"jane@example.com\"\n}\n```\n\n### Customer metadata fields\n\n```json\n{\n  \"customer_id\": 10,\n  \"email\": \"jane@example.com\",\n  \"company\": \"Acme Corp\",\n  \"phone\": \"+15551234567\",\n  \"customer_group_id\": 5,\n  \"store_credit\": 10.0,\n  \"date_created\": \"2024-03-01T00:00:00Z\"\n}\n```"
    },
    {
      "id": "troubleshooting",
      "title": "Troubleshooting",
      "content": "### `health=OFFLINE` after install\n\n**Cause:** Incorrect store hash or access token.\n\n**Fix:** Log in to BigCommerce Control Panel. Your store hash appears in the URL after `/stores/`. Verify the access token by checking Advanced Settings → API Accounts — if the token is not visible (only shown once), delete the account and create a new one.\n\n---\n\n### `BigCommerceAuthError: 401`\n\n**Cause:** The access token is invalid or the API account was deleted.\n\n**Fix:** In BigCommerce Control Panel → Advanced Settings → API Accounts, delete the existing account and create a new one. Copy the new token immediately.\n\n---\n\n### `BigCommerceAuthError: 403`\n\n**Cause:** The API account lacks required permissions.\n\n**Fix:** Edit the API account and set Products, Orders, and Customers permissions to at least **Read-only**. Click Save.\n\n---\n\n### `BigCommerceRateLimitError: 429`\n\n**Cause:** BigCommerce rate limit exceeded (varies by plan, typically ~150 req/30s).\n\n**Fix:** The connector retries automatically using the `X-Rate-Limit-Time-Reset-Ms` header. Large stores may take longer. BigCommerce Enterprise plans have higher rate limits.\n\n---\n\n### Sync shows `documents_failed > 0`\n\n**Cause:** Individual records failed normalization.\n\n**Fix:** Check connector logs. Failed records don't stop the sync — the sync completes as `partial` status.\n\n---\n\n### `ModuleNotFoundError` in tests\n\n**Fix:** Run tests from the connector root:\n```bash\ncd /Users/vivekvarshavaishvik/Documents/client_dir/bigcommerce_connector\npython -m pytest tests/ -v\n```"
    },
    {
      "id": "testing",
      "title": "Testing",
      "content": "The connector ships with 70+ unit tests covering all methods, normalizers, exceptions, pagination, and retry logic.\n\n### Run Unit Tests\n\n```bash\ncd /Users/vivekvarshavaishvik/Documents/client_dir/bigcommerce_connector\nsource \"/Volumes/V3-SSD/Shielva Project Dirs/.venv/bin/activate\"\npython -m pytest tests/ -v\n```\n\nAll HTTP calls are mocked — no BigCommerce store required.\n\n### Test Coverage\n\n- `install()` — success, missing store_hash, missing access_token, missing both, invalid token, network error, connector_id fallback\n- `health_check()` — healthy, auth error, network error, missing credentials\n- `sync()` — empty store, with data, v3 products pagination, v2 orders length-based pagination, products/orders/customers failure, partial normalization failure, kb_id ingestion\n- `list_products()` — single page, respects limit + page params\n- `get_product()` — success\n- `list_orders()` — single page, respects limit + page params\n- `get_order()` — success\n- `list_customers()` — single page, respects limit + page params\n- `get_customer()` — success\n- `normalize_product()` — basic, stable ID, prefix uniqueness, HTML stripping, no brand, no description, metadata fields, source URL\n- `normalize_order()` — basic, stable ID, guest customer, email fallback, metadata fields, source URL, currency\n- `normalize_customer()` — basic, stable ID, no phone, no company, email-only name, store credit, no store credit, metadata fields, source URL\n- Exception hierarchy — all 4 exception types, inheritance, defaults\n- `with_retry()` — success, retry on network error, no retry on auth error, exhaustion, rate limit\n- `_stable_id()` / `_strip_html()` — determinism, length, prefix differentiation, HTML variants\n- Lifecycle — aclose, idempotent aclose, context manager, _ensure_client creates and reuses\n- Config-based init — from config dict, kwarg wins when config empty\n- Model defaults — SyncResult, InstallResult, HealthCheckResult, ConnectorDocument"
    }
  ]
}
